114 [140387995870784] INFO mrtehelpers.mrteenv <> - Product libs directory: /home/rita/intel/oneapi/advisor/2023.0.0/lib64
114 [140387995870784] INFO mrtehelpers.mrteenv <> - File mask: advixe_samplingmrte_clrprof*
119 [140387995870784] INFO mrtehelpers.mrteenv <> - File name: lib
119 [140387995870784] ERROR mrtehelpers.mrteenv <> - Failed to init shared library lib located at /home/rita/intel/oneapi/advisor/2023.0.0/lib64, at file: vcs/mrtehelpers3/src/mrteenv/mrte_profiling_initializer.cpp:362
119 [140387995870784] ERROR mrtehelpers.mrteenv <> - CLR support is disabled because profiler GUID is empty, at file: vcs/mrtehelpers3/src/mrteenv/mrte_profiling_initializer.cpp:185
